<?xml version="1.0" encoding="utf-8"?>
<svg xmlns="http://www.w3.org/2000/svg"
	xmlns:xlink="http://www.w3.org/1999/xlink"
	width="35px" height="32px" viewBox="0 0 35 32">
<defs>
<symbol id="symbol0"><path fillRule="evenodd" d="M 29.6 27.54C 29.55 27.78 29.35 27.95 29.11 27.95 29.11 27.95 27.38 27.95 27.38 27.95 27.38 27.95 29.12 30.18 29.12 30.18 29.28 30.4 29.25 30.72 29.03 30.89 28.94 30.96 28.83 30.99 28.72 30.99 28.58 30.99 28.43 30.93 28.33 30.8 28.33 30.8 26.11 27.95 26.11 27.95 26.11 27.95 8.89 27.95 8.89 27.95 8.89 27.95 6.67 30.8 6.67 30.8 6.57 30.93 6.43 30.99 6.28 30.99 6.17 30.99 6.06 30.96 5.97 30.89 5.75 30.72 5.71 30.4 5.88 30.18 5.88 30.18 7.62 27.95 7.62 27.95 7.62 27.95 5.89 27.95 5.89 27.95 5.65 27.95 5.45 27.78 5.4 27.54 5.4 27.54 1.05 4.71 1.05 4.71 1 4.44 1.18 4.18 1.44 4.12 1.71 4.08 1.98 4.25 2.03 4.52 2.03 4.52 2.64 7.73 2.64 7.73 2.69 7.72 2.74 7.7 2.8 7.7 4.75 7.7 5.73 8.24 6.69 8.77 7.57 9.25 8.4 9.71 10.09 9.71 10.79 9.71 11.32 9.62 11.79 9.5 11.79 9.5 5.88 1.88 5.88 1.88 5.71 1.66 5.75 1.35 5.97 1.18 6.19 1.01 6.5 1.04 6.67 1.26 6.67 1.26 12.79 9.14 12.79 9.14 13.03 9.02 13.27 8.9 13.5 8.77 14.45 8.25 15.44 7.7 17.39 7.7 19.34 7.7 20.32 8.24 21.27 8.77 21.56 8.93 21.85 9.07 22.16 9.21 22.16 9.21 28.33 1.26 28.33 1.26 28.5 1.04 28.81 1.01 29.03 1.18 29.25 1.35 29.28 1.66 29.12 1.88 29.12 1.88 23.17 9.54 23.17 9.54 23.6 9.64 24.07 9.71 24.68 9.71 26.38 9.71 27.21 9.25 28.09 8.77 29.05 8.25 30.03 7.7 31.98 7.7 32.12 7.7 32.25 7.76 32.34 7.85 32.34 7.85 32.97 4.52 32.97 4.52 33.02 4.25 33.28 4.07 33.56 4.12 33.83 4.18 34 4.44 33.95 4.71 33.95 4.71 29.6 27.54 29.6 27.54ZM 25.33 26.94C 25.33 26.94 17.5 16.85 17.5 16.85 17.5 16.85 9.67 26.94 9.67 26.94 9.67 26.94 25.33 26.94 25.33 26.94ZM 12.47 10.36C 11.85 10.57 11.1 10.72 10.09 10.72 8.14 10.72 7.16 10.18 6.21 9.65 5.33 9.17 4.5 8.71 2.83 8.71 2.83 8.71 6.3 26.94 6.3 26.94 6.3 26.94 8.4 26.94 8.4 26.94 8.4 26.94 16.87 16.03 16.87 16.03 16.87 16.03 12.47 10.36 12.47 10.36ZM 20.8 9.65C 19.92 9.17 19.08 8.71 17.39 8.71 15.69 8.71 14.86 9.17 13.98 9.65 13.8 9.75 13.61 9.85 13.41 9.95 13.41 9.95 17.5 15.22 17.5 15.22 17.5 15.22 21.52 10.03 21.52 10.03 21.27 9.91 21.03 9.78 20.8 9.65ZM 31.98 8.71C 30.28 8.71 29.45 9.17 28.57 9.65 27.62 10.18 26.64 10.72 24.68 10.72 23.77 10.72 23.08 10.6 22.49 10.42 22.49 10.42 18.13 16.03 18.13 16.03 18.13 16.03 26.6 26.94 26.6 26.94 26.6 26.94 28.7 26.94 28.7 26.94 28.7 26.94 32.18 8.66 32.18 8.66 32.12 8.69 32.05 8.71 31.98 8.71Z"/></symbol></defs>
<g><use xlink:href="#symbol0" x="0" y="0" width="35" height="32" fill="rgb(0,0,0)"/><use xlink:href="#symbol0" x="0" y="0" width="35" height="32" fill="none" stroke="rgb(135,19,85)" stroke-width="1.00px"/></g></svg>